40982 472590 449
840695 4667 525
661438 696574 442
766455 860077 525
209991 16376 383
474229 141273 449
119545 752598 509
56402 375414 443
754306 734633 424
227860 87554 386
155774 574786 470
365960 978735 525
943306 161469 525
234675 530326 470
901029 664323 525
168928 332556 443
636364 881045 525
600498 412015 470
108748 26969 354
468663 89292 449
849366 488388 525
73304 280818 443
818918 388296 509
937052 52746 525
74717 11462 340
749011 63917 509
338608 558587 470
790833 880535 525
657211 448754 509
27140 499242 449
250624 468746 449
470875 584485 470
142984 705913 509
862267 398424 525
826029 183038 509
908808 785381 525
974490 346328 525
903211 771472 525
673541 669743 367
640412 473768 509
613445 611050 354
154470 736382 509
42649 881199 525
771149 249529 509
827593 115312 509
663339 288211 509
597415 623568 447
837787 54637 509
117213 591724 470
173009 606651 470
387518 292157 441
224253 307306 443
545617 109948 470
46916 269857 443
321320 458007 449
416200 977007 525
479365 54879 449
451314 727005 509
655315 845940 525
671594 82639 509
285599 325545 389
120196 637739 509
895931 249304 525
173499 913087 525
272902 171503 443
480935 771642 509
984799 859596 507
104723 695317 509
860129 808265 525
746619 98823 509
113899 24152 354
491005 603290 470
278476 92937 443
536568 452575 470
251546 615177 470
385302 681227 509
876496 82670 525
686948 397345 509
942744 93613 525
467560 65479 449
23489 890861 525
357657 452788 449
642926 312894 509
51399 270002 443
735917 974031 525
651381 848490 525
369354 810999 509
357322 420842 449
216608 455827 449
875123 96518 525
324320 780368 509
300662 473880 449
266904 402250 441
935905 387604 525
303875 387576 441
411440 625402 470
836848 508302 509
334819 62608 443
466544 323231 449
241135 572976 470
242698 21593 443
40210 6798 324
740631 179824 509
700871 94724 509
324366 292831 384
286998 156399 443
787369 565352 509
183853 509289 449
175974 799568 509
549933 771160 509
518919 978760 525
524110 957965 525
221755 375688 443
822541 144434 509
951992 993229 458
688798 771164 504
853554 151863 525
165686 686394 509
700241 694353 367
478385 333459 449
482275 619754 470
872718 960232 507
333650 347562 441
624890 515753 452
697342 147657 509
154430 620485 470
385071 557231 470
805138 589959 509
203508 439027 449
972476 561775 525
959382 955737 352
246420 808172 509
827807 99089 509
102049 396083 443
748711 11877 509
65832 287740 443
154532 769327 509
495761 757904 509
258156 690514 509
392193 958229 525
426247 290670 449
37645 868773 525
240391 472479 449
798788 212556 509
269091 44380 443
513407 567859 452
409049 573855 470
100411 757011 509
676612 682536 380
560505 263637 470
719302 71999 509
332610 397088 441
200190 560780 470
576278 977199 525
892110 581755 525
924975 582643 525
133383 566735 470
961040 399411 525
947953 322495 525
465529 368694 449
89036 996180 525
747928 583121 509
180328 607595 470
457808 497957 444
27896 907373 525
702693 26638 509
715352 164959 509
774302 863695 525
754035 562885 509
490457 654741 509
229810 497188 449
275295 362522 441
143146 67436 375
599466 305479 470
729304 844388 525
227290 439033 449
264598 394616 441
518885 130630 470
570869 563853 421
101564 177353 383
630092 271983 509
857676 270384 525
528154 894023 525
850324 436425 525
488638 200285 449
734007 958549 525
451006 758926 509
410152 385824 449
393577 385391 436
589445 193680 470
583219 395028 470
833010 574019 509
362604 346218 410
557505 264314 470
402180 73712 443
756531 191149 509
493890 241528 449
527198 143093 470
820693 552813 509
414534 835728 509
277737 505431 449
929153 88451 525
