162615 595978 470
674626 87473 509
785867 564444 509
938954 329648 525
764704 333941 509
197018 6031 383
254155 262925 363
549778 416935 470
683738 529676 509
537558 616212 452
921916 121528 525
1209 365193 443
758497 793984 468
903286 79339 525
48727 599036 470
969107 72869 525
78649 783737 509
582826 544735 452
75320 719376 509
557513 966486 525
247516 367276 441
299278 482018 449
360333 578660 470
684807 234920 509
277191 940040 525
283194 821140 509
983229 311755 525
823234 397950 509
389276 5570 443
852537 389330 525
766533 26051 509
541599 486537 470
786681 362600 509
785282 44922 509
804382 125974 509
295457 764470 509
368339 395889 436
94436 938636 525
769276 588865 509
536113 420092 470
163749 242948 443
89995 884975 525
915592 271338 525
285070 622529 470
694806 620811 509
572707 267647 470
719423 727913 411
870646 154211 525
357930 37005 443
416521 981561 525
186172 667323 509
397793 657980 509
838321 677206 525
916199 5689 525
143437 35686 375
357514 530289 470
855238 106343 525
710563 150727 509
235939 578984 470
254207 880644 525
988129 950918 458
12060 983977 525
50322 434737 449
391459 131179 443
148486 743534 509
937801 592618 525
830698 104475 509
673370 348571 509
328624 864937 525
900289 670254 525
386699 193740 443
979125 958832 458
590038 693045 509
175330 826649 509
448228 883339 525
937048 220572 525
407017 756071 509
139858 874841 525
217120 563404 470
696620 467067 509
893494 699772 525
341405 66122 443
216121 827246 509
338313 314114 384
820857 705788 468
186969 858781 525
866121 430394 525
86127 77312 338
742145 434604 509
247569 791230 509
582392 74437 470
41764 969362 525
344861 3505 443
175934 517616 470
538427 681226 509
461230 841636 525
847350 460053 525
721918 725698 411
299518 473763 449
828215 940343 525
254413 995153 525
914863 130145 525
618189 304602 470
665379 366453 509
679327 1671 509
934905 851039 476
766586 666570 504
483195 590157 470
153736 862565 525
91667 504449 449
454714 460034 356
938962 204689 525
760104 322229 509
298813 512860 470
533844 647964 509
740225 111709 509
158687 956185 525
141891 806330 509
910533 323498 525
508893 529924 470
208199 353667 443
33371 518377 470
914378 54950 525
906145 737220 525
405003 515829 470
423428 511442 444
704089 9487 509
209473 193500 373
32044 372146 443
999011 28718 525
121966 683301 509
691979 976894 525
664211 980694 525
605279 368859 470
680280 851396 525
415719 977854 525
675787 252807 509
304742 353402 441
457964 534663 470
851610 327737 525
45735 428805 449
806567 327646 509
670172 781443 504
780132 971293 525
974174 968745 458
677421 227714 509
809478 700574 504
489399 5444 449
827827 182853 509
878469 926395 476
457898 570854 470
330958 496925 449
988691 698658 525
460165 821736 509
270698 826684 509
645983 396588 509
113775 916240 525
129687 675195 509
824796 445592 509
470750 486586 413
210177 448910 449
10857 439265 449
542517 476640 470
757126 348585 509
307919 457628 449
348729 329794 441
667349 267037 509
744459 190060 509
125691 421979 449
559404 900482 525
976096 641068 525
963817 196355 525
473665 300494 449
731680 138977 509
286812 23971 443
34104 786335 509
906074 551601 525
322000 781116 509
133275 427453 449
506912 365582 449
410087 270493 449
547196 906765 525
702390 109494 509
697130 531233 509
752811 315053 509
941475 298768 525
761190 265504 509
887902 589899 525
565231 219164 470
978111 287487 525
371408 520959 470
349893 735992 509
8724 201885 383
87886 119470 354
81948 270321 443
835628 545759 509
643892 336332 509
278064 389244 441
14559 324550 443
813895 788734 468
670722 2432 509
276918 641640 509
473916 585134 470
133375 382297 443
102292 883392 525
363436 290549 441
18867 470219 449
749100 578868 509
191867 430120 449
279232 786477 509
301680 551684 470
644337 114033 509
238311 59932 443
379609 847308 525
292035 677370 509
